<?xml version="1.0" encoding="UTF-8" standalone="no"?>
<svg
   xmlns:dc="http://purl.org/dc/elements/1.1/"
   xmlns:cc="http://creativecommons.org/ns#"
   xmlns:rdf="http://www.w3.org/1999/02/22-rdf-syntax-ns#"
   xmlns:svg="http://www.w3.org/2000/svg"
   xmlns="http://www.w3.org/2000/svg"
   xmlns:xlink="http://www.w3.org/1999/xlink"
   xmlns:sodipodi="http://sodipodi.sourceforge.net/DTD/sodipodi-0.dtd"
   xmlns:inkscape="http://www.inkscape.org/namespaces/inkscape"
   width="300"
   height="300"
   viewBox="0 0 79.373332 79.38"
   version="1.1"
   id="svg18"
   sodipodi:docname="icon.svg"
   inkscape:version="0.92.3 (2405546, 2018-03-11)"
   inkscape:export-filename="/home/diatomee/Bureau/Musiko 4/Musiko/assets/icon.png"
   inkscape:export-xdpi="96"
   inkscape:export-ydpi="96">
  <metadata
     id="metadata24">
    <rdf:RDF>
      <cc:Work
         rdf:about="">
        <dc:format>image/svg+xml</dc:format>
        <dc:type
           rdf:resource="http://purl.org/dc/dcmitype/StillImage" />
        <dc:title />
      </cc:Work>
    </rdf:RDF>
  </metadata>
  <defs
     id="defs22">
    <linearGradient
       inkscape:collect="always"
       id="linearGradient826">
      <stop
         style="stop-color:#000000;stop-opacity:0"
         offset="0"
         id="stop822" />
      <stop
         style="stop-color:#000000;stop-opacity:1"
         offset="1"
         id="stop824" />
    </linearGradient>
    <radialGradient
       inkscape:collect="always"
       xlink:href="#linearGradient826"
       id="radialGradient828"
       cx="4.1915431"
       cy="6.1399055"
       fx="4.1915431"
       fy="6.1399055"
       r="1.2587752"
       gradientTransform="matrix(0.41540682,-1.2164813e-4,-0.0153774,0.68642403,2.5951886,1.8281923)"
       gradientUnits="userSpaceOnUse" />
  </defs>
  <sodipodi:namedview
     pagecolor="#ffffff"
     bordercolor="#666666"
     borderopacity="1"
     objecttolerance="10"
     gridtolerance="10"
     guidetolerance="10"
     inkscape:pageopacity="0"
     inkscape:pageshadow="2"
     inkscape:window-width="1920"
     inkscape:window-height="1031"
     id="namedview20"
     showgrid="true"
     inkscape:zoom="1.4142136"
     inkscape:cx="-38.600372"
     inkscape:cy="180.35655"
     inkscape:window-x="0"
     inkscape:window-y="25"
     inkscape:window-maximized="1"
     inkscape:current-layer="g16"
     inkscape:showpageshadow="false">
    <inkscape:grid
       type="xygrid"
       id="grid4537" />
  </sodipodi:namedview>
  <g
     id="g16"
     style="fill-rule:evenodd"
     transform="translate(0,74.088)">
    <path
       style="opacity:1;fill:#adb2c5;fill-opacity:1;stroke:#000000;stroke-width:7.25771284;stroke-linecap:round;stroke-linejoin:round;stroke-miterlimit:4;stroke-dasharray:none;stroke-dashoffset:0;stroke-opacity:0.71428573"
       d="m 25.433999,-66.53373 v 8.880904 33.838826 c -3.720937,-1.820991 -8.486301,-1.849081 -12.751879,-0.07518 -7.1762218,2.992105 -10.8431472,10.112763 -8.1910325,15.9058373 2.6544465,5.7941564 10.6261115,8.0645185 17.8040755,5.0706734 5.553431,-2.3221652 9.182024,-7.2365027 9.029211,-12.2285877 h 0.02891 v -42.511571 h 38.47529 v 32.861698 c -3.720942,-1.820982 -8.486306,-1.849065 -12.75188,-0.07514 -7.176221,2.992104 -10.843145,10.112761 -8.19103,15.9058368 2.654447,5.7941554 10.626113,8.0645171 17.804077,5.0706715 5.160798,-2.1553547 8.700229,-6.5715583 9.017645,-11.2514583 h 0.04045 v -51.392495 h -5.919279 z"
       id="rect816"
       inkscape:connector-curvature="0"
       sodipodi:nodetypes="ccccccccccccccccccc" />
    <path
       sodipodi:nodetypes="ccccccccccccccccccc"
       inkscape:connector-curvature="0"
       id="path831"
       d="m 25.433999,-66.53373 v 8.880904 33.838826 c -3.720937,-1.820991 -8.486301,-1.849081 -12.751879,-0.07518 -7.1762218,2.992105 -10.8431472,10.112763 -8.1910325,15.9058373 2.6544465,5.7941564 10.6261115,8.0645185 17.8040755,5.0706734 5.553431,-2.3221652 9.182024,-7.2365027 9.029211,-12.2285877 h 0.02891 v -42.511571 h 38.47529 v 32.861698 c -3.720942,-1.820982 -8.486306,-1.849065 -12.75188,-0.07514 -7.176221,2.992104 -10.843145,10.112761 -8.19103,15.9058368 2.654447,5.7941554 10.626113,8.0645171 17.804077,5.0706715 5.160798,-2.1553547 8.700229,-6.5715583 9.017645,-11.2514583 h 0.04045 v -51.392495 h -5.919279 z"
       style="opacity:1;fill:#b9bece;fill-opacity:1;stroke:none;stroke-width:7.25771284;stroke-linecap:round;stroke-linejoin:round;stroke-miterlimit:4;stroke-dasharray:none;stroke-dashoffset:0;stroke-opacity:1" />
  </g>
</svg>
